<svg xmlns="http://www.w3.org/2000/svg" viewBox="0 0 600 600">
    <circle cx="180" cy="180" r="160" fill="none" stroke="black" stroke-width="40"/>
    <rect width="320" height="40" x="280" y="280" transform="rotate(45, 280, 300) translate(0, -10)"/>
    <text x="160" y="224" font-family="Ubuntu, sans-serif" font-size="200">
        1
    </text>
</svg>
